<?xml version="1.0" standalone="no"?>
<!DOCTYPE svg PUBLIC "-//W3C//DTD SVG 20010904//EN"
 "http://www.w3.org/TR/2001/REC-SVG-20010904/DTD/svg10.dtd">
<svg version="1.0" xmlns="http://www.w3.org/2000/svg"
 width="1026.000000pt" height="1280.000000pt" viewBox="0 0 1026.000000 1280.000000"
 preserveAspectRatio="xMidYMid meet">
<metadata>
Created by potrace 1.15, written by Peter Selinger 2001-2017
</metadata>
<g transform="translate(0.000000,1280.000000) scale(0.100000,-0.100000)"
fill="#ffffff" stroke="none">
<path d="M4330 12755 c-118 -24 -424 -85 -680 -135 -256 -50 -583 -114 -727
-143 l-262 -51 -5 -61 c-3 -33 -15 -269 -26 -525 -11 -256 -27 -640 -37 -855
l-17 -390 298 -635 c165 -349 312 -662 327 -694 16 -33 28 -61 26 -62 -2 -2
-306 300 -677 671 -371 371 -680 675 -686 675 -7 0 -243 -88 -525 -196 -283
-108 -551 -209 -596 -226 l-83 -30 0 -61 c0 -56 -9 -315 -60 -1757 -14 -420
-16 -548 -7 -557 7 -7 215 -172 462 -367 l450 -355 70 76 c39 42 69 82 67 89
-1 7 46 50 105 96 107 83 110 84 308 156 110 39 247 83 304 97 58 15 121 33
140 42 59 25 98 32 271 48 215 19 492 19 650 -1 193 -24 334 -34 467 -33 l122
1 293 93 294 93 244 17 c135 9 245 18 246 19 1 0 51 62 112 137 l110 137 11
283 c6 156 13 313 15 349 6 86 66 280 120 389 42 82 52 94 173 200 88 77 154
126 209 154 43 22 81 42 83 44 2 1 -56 61 -130 131 -251 241 -568 502 -674
554 -63 32 -84 36 -209 47 -86 8 -154 19 -180 31 -23 9 -57 21 -76 25 -35 8
-246 132 -288 169 -13 12 -38 38 -54 59 l-31 38 28 70 27 69 76 0 c43 -1 109
-7 147 -14 51 -11 83 -12 118 -4 26 5 47 12 47 15 0 3 -9 18 -20 34 -12 15
-29 52 -39 81 -21 60 -132 246 -195 325 -22 29 -57 73 -76 100 -19 26 -86 101
-149 168 -62 66 -133 143 -157 171 l-44 51 24 93 c14 51 27 95 30 97 3 3 42
-3 88 -12 69 -15 109 -33 240 -106 86 -49 160 -89 163 -89 3 0 14 19 25 43 10
23 29 58 40 77 l22 36 -51 519 c-28 286 -51 523 -51 528 0 10 0 10 -240 -38z"/>
<path d="M5614 12023 c-57 -54 -144 -170 -144 -191 0 -6 -11 -43 -25 -84 -14
-40 -25 -91 -25 -113 -1 -24 -8 -49 -19 -63 l-19 -22 -153 65 c-140 60 -158
66 -213 63 l-61 -3 3 -35 c2 -28 16 -49 70 -104 75 -77 222 -197 232 -191 12
7 46 -37 62 -80 9 -22 39 -82 67 -134 32 -60 51 -106 51 -128 0 -18 -2 -33 -4
-33 -2 0 -68 34 -147 76 -215 114 -289 146 -305 133 -22 -18 -17 -54 16 -120
35 -69 65 -93 229 -184 60 -33 152 -94 205 -135 l97 -75 -6 -55 c-4 -30 -16
-72 -26 -92 -10 -20 -19 -51 -19 -68 0 -63 -72 -26 -250 130 -128 113 -132
118 -205 245 -84 148 -119 244 -170 465 -39 172 -45 275 -19 315 14 21 14 26
-1 54 -17 33 -38 38 -80 19 -27 -12 -72 -95 -96 -175 -7 -24 -13 -43 -14 -43
-13 0 -149 70 -265 136 -80 45 -162 86 -182 89 -34 7 -39 5 -48 -20 -5 -14
-10 -30 -10 -34 0 -4 64 -74 143 -155 78 -81 160 -172 182 -202 22 -30 56 -76
76 -102 65 -84 192 -296 206 -342 7 -25 22 -56 32 -70 37 -51 71 -130 71 -165
0 -32 -3 -35 -27 -34 -16 0 -46 4 -68 8 -22 4 -58 3 -80 -2 -28 -6 -74 -3
-153 9 -100 16 -114 16 -128 3 -13 -14 -13 -18 5 -41 25 -32 229 -156 284
-173 23 -7 58 -20 77 -28 19 -8 96 -20 170 -27 121 -11 142 -16 219 -51 90
-42 88 -40 351 -259 196 -163 573 -517 567 -534 -2 -6 -62 -40 -133 -76 -112
-56 -145 -79 -246 -170 -111 -100 -119 -109 -162 -200 -83 -174 -94 -236 -111
-633 -10 -242 -19 -354 -28 -366 -6 -9 -68 -85 -136 -169 -103 -126 -128 -152
-150 -152 -14 0 -127 -7 -251 -16 l-225 -16 -170 -53 c-93 -29 -228 -72 -299
-95 -126 -40 -133 -41 -275 -42 -80 0 -171 2 -201 6 -303 35 -362 38 -666 33
-312 -5 -388 -12 -479 -47 -27 -11 -97 -31 -155 -45 -58 -14 -188 -56 -290
-92 -169 -61 -192 -72 -268 -130 -45 -35 -82 -70 -82 -78 0 -8 -79 -95 -177
-195 l-176 -181 7 -164 c4 -97 15 -208 27 -268 18 -96 19 -112 6 -241 l-13
-137 37 -78 c27 -58 130 -213 185 -280 2 -2 13 9 26 24 l24 27 27 -66 c21 -53
27 -82 27 -144 l0 -77 -133 -227 c-129 -220 -136 -231 -297 -410 -93 -103
-174 -201 -184 -226 -18 -40 -18 -46 -2 -140 9 -53 27 -187 40 -297 l25 -200
109 -320 110 -320 16 -160 c10 -88 28 -216 42 -285 13 -69 24 -148 24 -176 0
-33 5 -56 14 -64 12 -9 19 -3 39 36 13 26 26 43 29 38 3 -5 20 -63 38 -129 48
-175 37 -168 262 -169 194 -1 228 6 228 45 0 28 -31 85 -85 153 -107 137 -245
405 -245 474 0 16 -11 61 -24 100 -14 39 -49 212 -80 384 -44 254 -56 340 -59
458 -4 131 -3 149 16 187 12 24 24 43 28 43 4 0 36 -33 71 -74 72 -85 260
-407 308 -531 18 -44 56 -125 85 -180 66 -124 127 -258 261 -580 57 -137 109
-254 114 -259 6 -6 19 -5 35 2 23 11 26 9 45 -27 37 -74 27 -71 276 -71 l224
0 0 29 c0 62 -60 173 -168 311 -58 74 -150 205 -203 291 -83 135 -118 207
-248 511 -83 195 -151 368 -151 385 0 16 -9 56 -21 89 -17 49 -20 76 -16 155
4 97 4 97 52 165 69 100 131 167 249 274 58 52 132 126 163 163 32 38 99 104
150 147 51 43 139 132 197 197 58 66 116 125 129 132 19 10 51 9 182 -9 87
-11 162 -23 167 -26 5 -3 98 -8 206 -11 225 -5 428 10 482 37 19 9 40 16 45
13 6 -2 43 8 83 21 53 18 74 22 79 13 5 -7 24 -72 44 -146 l36 -133 -28 -97
c-35 -121 -66 -211 -78 -225 -23 -28 -29 -84 -15 -143 8 -34 19 -196 27 -379
l14 -319 -89 -434 c-97 -471 -107 -536 -108 -653 0 -86 7 -93 60 -63 14 8 30
14 37 15 14 0 44 -78 79 -209 l27 -99 178 2 178 1 29 -28 c47 -45 99 -55 313
-58 l194 -3 -3 23 c-2 12 -44 93 -94 179 -137 236 -168 308 -180 422 -8 77 -7
118 6 215 9 66 23 179 30 250 8 72 19 144 25 160 5 17 24 100 41 185 20 96 44
182 63 225 l31 70 8 245 c5 135 10 273 11 307 1 34 8 68 15 74 6 7 12 36 12
63 0 35 7 59 20 76 11 14 20 37 20 51 0 15 7 43 15 62 8 20 15 49 15 64 0 34
32 139 58 190 11 21 23 63 27 93 4 30 15 71 25 90 40 79 159 336 164 356 4 11
31 49 61 85 30 35 55 71 55 80 0 17 70 106 170 219 37 41 97 120 132 175 36
55 166 222 289 370 279 337 374 482 425 646 49 159 47 225 -11 464 -50 207
-70 253 -149 343 -78 89 -77 112 8 186 35 31 69 56 77 56 8 0 23 7 33 15 11 8
28 15 38 15 32 0 331 143 360 172 20 20 22 20 77 3 31 -10 66 -26 79 -35 13
-11 31 -16 45 -13 31 8 147 111 147 132 0 9 4 21 9 26 5 6 13 43 18 82 13 103
2 118 -160 224 -150 99 -337 209 -447 264 -93 47 -185 117 -205 156 -16 29
-15 30 48 112 121 157 159 217 228 369 67 146 117 293 105 305 -3 4 -37 -15
-75 -40 -38 -25 -141 -82 -228 -126 -172 -86 -207 -115 -295 -241 -25 -36 -60
-82 -77 -104 l-30 -38 -95 145 c-52 79 -130 216 -174 303 -75 151 -79 163 -85
242 -4 59 1 121 17 220 20 127 26 144 75 237 30 55 71 123 92 151 45 61 59
104 35 104 -33 0 -203 -74 -243 -107 -26 -20 -62 -68 -94 -123 -28 -50 -55
-90 -60 -90 -16 0 -13 47 7 105 16 45 19 66 12 86 l-9 27 -52 -15 c-48 -14
-52 -14 -64 4 -47 63 -90 164 -136 315 l-53 173 13 90 c7 50 35 173 62 275 28
102 53 203 56 225 4 22 9 48 12 58 9 32 -22 18 -83 -40z m118 -1728 l29 -80
-40 40 c-30 29 -41 47 -41 70 0 41 12 84 18 65 3 -8 18 -51 34 -95z m-987
-6797 c-20 -166 -47 -361 -60 -433 l-23 -130 -1 205 -1 205 57 232 c32 128 59
230 61 228 2 -2 -13 -140 -33 -307z"/>
<path d="M8118 8517 l-517 -622 -333 -149 c-183 -82 -337 -152 -342 -157 -5
-4 -8 -41 -7 -81 1 -61 -5 -96 -42 -213 -39 -127 -51 -153 -132 -280 -59 -92
-166 -231 -309 -405 -121 -145 -249 -309 -284 -365 -36 -55 -98 -136 -137
-180 -113 -128 -155 -182 -155 -199 0 -10 -27 -49 -60 -88 -33 -39 -65 -87
-71 -107 -7 -20 -38 -89 -70 -153 -33 -65 -59 -125 -59 -134 0 -9 -9 -28 -19
-43 -11 -15 -23 -52 -27 -82 -4 -30 -20 -81 -35 -113 -16 -33 -33 -85 -40
-115 -6 -31 -17 -81 -25 -112 -8 -30 -14 -64 -14 -75 0 -10 -9 -30 -20 -44
-14 -17 -20 -41 -20 -77 0 -28 -5 -55 -11 -59 -6 -3 -9 -18 -6 -33 3 -14 -1
-55 -8 -91 -10 -43 -14 -134 -15 -273 l0 -208 -35 -82 c-41 -95 -93 -334 -130
-592 -13 -93 -28 -204 -34 -245 -8 -51 -8 -105 -2 -166 8 -80 16 -104 60 -191
27 -55 85 -160 129 -234 65 -110 81 -147 91 -204 7 -39 15 -78 18 -89 5 -18
-4 -18 -248 -12 -298 8 -358 17 -406 59 -30 27 -40 29 -111 31 -42 0 -129 -3
-192 -7 l-115 -9 -29 109 c-15 59 -33 125 -39 146 l-10 37 -78 0 -79 0 5 90
c3 50 7 132 10 183 3 50 18 155 34 232 16 77 57 275 91 440 l62 300 -11 310
c-8 198 -18 336 -28 382 -17 80 -8 148 27 208 17 30 59 150 80 232 9 36 7 56
-12 128 -18 68 -25 84 -38 80 -8 -4 -28 -9 -45 -11 -16 -3 -46 -12 -65 -19
-101 -39 -570 -49 -760 -15 -63 11 -149 23 -190 26 l-75 6 -99 -114 c-54 -62
-137 -146 -185 -186 -47 -40 -116 -107 -152 -148 -36 -41 -118 -123 -181 -182
-109 -100 -181 -179 -238 -261 -34 -49 -39 -155 -11 -235 12 -33 21 -72 21
-88 0 -16 67 -186 149 -379 129 -300 163 -371 245 -502 52 -83 142 -212 200
-286 139 -178 176 -261 176 -390 l0 -91 -278 0 -277 0 -37 25 c-21 14 -42 34
-48 44 -5 11 -31 26 -57 35 l-48 16 -99 243 c-124 300 -231 540 -286 634 -22
40 -57 112 -76 160 -20 48 -83 173 -142 277 l-107 188 -3 -77 c-2 -50 6 -123
22 -213 14 -75 39 -216 56 -312 17 -96 44 -218 60 -270 17 -52 30 -104 30
-116 0 -53 116 -266 220 -404 83 -110 100 -147 100 -224 l0 -66 -52 -27 -53
-28 -215 0 -215 0 -46 38 c-38 32 -49 48 -59 93 -14 56 -18 62 -38 42 -6 -6
-13 -10 -15 -7 -2 2 -27 36 -56 75 -50 71 -51 73 -51 145 0 41 -9 121 -20 179
-11 58 -28 179 -39 270 -14 116 -28 189 -48 245 l-28 80 -315 22 c-173 11
-316 20 -317 19 -5 -4 -623 -1330 -621 -1331 2 -1 68 -29 148 -62 640 -268
917 -387 931 -401 9 -10 132 -206 274 -437 142 -231 260 -422 261 -424 6 -7
2984 -748 2984 -742 -1 3 -202 254 -449 556 -247 303 -448 551 -447 552 2 2
205 -60 936 -287 234 -73 510 -158 614 -190 l189 -59 498 250 499 249 647
-105 c357 -57 914 -147 1238 -200 325 -53 610 -98 635 -101 39 -5 -57 56 -685
440 -401 246 -734 451 -740 457 -6 6 19 7 65 4 65 -5 907 -51 1815 -100 154
-8 302 -17 329 -20 27 -2 45 -1 40 4 -5 5 -371 180 -814 391 -443 210 -808
385 -812 389 -4 3 127 3 290 0 163 -4 576 -12 917 -18 341 -6 680 -14 753 -17
72 -3 132 -1 132 3 0 4 -269 332 -597 728 l-597 720 -40 -2 c-49 -3 -637 -50
-1211 -97 -231 -19 -421 -34 -422 -33 -1 2 75 107 170 235 l172 231 372 683
c205 375 371 683 370 684 -2 3 -128 -38 -942 -301 -176 -57 -321 -103 -322
-101 -2 2 414 375 924 829 l928 825 53 364 c29 199 70 485 92 633 104 715 180
1242 183 1264 2 23 -14 29 -368 147 -203 68 -372 124 -375 124 -3 0 -238 -280
-522 -623z"/>
</g>
</svg>
